YUL;Montreal;45.4697842;-73.7554174;36
YYZ;Toronto;43.6777215;-79.6270084;173
JFK;New York JFK;40.6413151;-73.7803278;4

JFK;New York^^ JFK;40.6413151;-73.7803278;4
JFK;New York JFK;1040.6413151;-73.7803278;4
JFK;New York JFK;40.6413151;-73.7803278
JFK;New York JFK;40.6413151;-273.7803278;4
JFK;New York JFK;40.6413151;-73.7803278;2000
JF;New York JFK;40.6413151;-73.7803278;4
YVR;Vancouver;49.1966913;-123.183701;4